{
    "type": "phrase",
    "description": "delta",
    "modes": [
        1
    ],
    "usageCount": 22,
    "prompt": false,
    "omitTrigger": false,
    "matchCase": true,
    "showInTrayMenu": false,
    "abbreviation": {
        "abbreviations": [
            "delta"
        ],
        "backspace": true,
        "ignoreCase": true,
        "immediate": true,
        "triggerInside": false,
        "wordChars": "[\\w]"
    },
    "hotkey": {
        "modifiers": [],
        "hotKey": null
    },
    "filter": {
        "regex": null,
        "isRecursive": false
    },
    "sendMode": "<ctrl>+v"
}