{
    "type": "phrase",
    "description": "maccel (Markdown)",
    "modes": [
        1
    ],
    "usageCount": 1,
    "prompt": false,
    "omitTrigger": false,
    "matchCase": false,
    "showInTrayMenu": false,
    "abbreviation": {
        "abbreviations": [
            "[mouseaccel]"
        ],
        "backspace": true,
        "ignoreCase": false,
        "immediate": true,
        "triggerInside": false,
        "wordChars": "[\\w]"
    },
    "hotkey": {
        "modifiers": null,
        "hotKey": null
    },
    "filter": {
        "regex": null,
        "isRecursive": false
    },
    "sendMode": "kb"
}