{
    "type": "script",
    "description": "underline",
    "store": {},
    "modes": [
        1
    ],
    "usageCount": 16,
    "prompt": false,
    "omitTrigger": false,
    "showInTrayMenu": false,
    "abbreviation": {
        "abbreviations": [
            "underline()"
        ],
        "backspace": true,
        "ignoreCase": true,
        "immediate": true,
        "triggerInside": false,
        "wordChars": "[\\w]"
    },
    "hotkey": {
        "modifiers": null,
        "hotKey": null
    },
    "filter": {
        "regex": null,
        "isRecursive": false
    }
}